{
    "id": "distillingHead",
    "name": "Distilling Head",
    "type": "glassware",
    "meta": false,
    "attributes": [],
    "cost": {
        "min": 0,
        "max": 0
    },
    "description": ""
}
