{
    "id": "Drying Bottle",
    "name": "Wash/Drying Bottle",
    "type": "glassware",
    "meta": false,
    "attributes": [],
    "cost": {
        "min": 0,
        "max": 0
    },
    "description": ""
}
